{
        "language": "michelson",
        "domain": {
                "compose": [
                        {
                                "switch": [
                                        // Michelson iterators
                                        "michelson.program-mc",

                                        // Michelson main iterator
                                        "michelson.stack_statements",
                                        { "compose": [
                                                "michelson.types.operations",
                                                { "switch": [
                                                        // Container domains
                                                        "michelson.types.pairs",
                                                        "michelson.types.options",
                                                        "michelson.types.unions",
                                                        "michelson.types.lists",
                                                        "michelson.types.sets",
                                                        "michelson.types.maps",

                                                        // domains
                                                        "michelson.types.units",
                                                        "michelson.types.booleans",
                                                        "michelson.types.integers",
                                                        "michelson.types.mutez",
                                                        "michelson.types.timestamps",
                                                        "michelson.types.strings",
                                                        "michelson.types.bytes",
                                                        "michelson.types.addresses",
                                                        "michelson.types.signatures",
                                                        "michelson.types.keys",
                                                        "michelson.types.key_hashs",
                                                        "michelson.types.chainids",
                                                        "michelson.types.lambdas",
                                                        "michelson.types.parameter_type",
                                                        "michelson.contracts_store"
                                                ]
                                                }
                                        ]
                                        }
                                ]
                        },
                        {
                                "semantic": "Universal",
                                "switch": [
                                        // Universal iterators
                                        "universal.iterators.intraproc",
                                        "universal.iterators.loops",
                                        "universal.iterators.interproc.inlining",
                                        "universal.iterators.unittest",
                                        // Numeric abstractions
                                        {
                                                "nonrel": {
                                                        "union": [
                                                                "universal.numeric.values.intervals.integer",
                                                                "universal.strings.powerset"
                                                        ]
                                                }
                                        }
                                ]
                        }
                ]
        }
}
