[1;38;5;40mAnalysis terminated successfully[0m
Last flow =
            cur : 
               addresses : ∅,
               int-itv ∪ strings : 
                  num⦃initial_parameter⦄ ⇀ [1,1],
                  num⦃initial_storage⦄ ⇀ ⊤,
                  num⦃stackpos[0].snd (m_string)⦄ ⇀ Titi ,
               lambda : ∅,
               lists :  stackpos[0].fst ((list m_operation)) ⇀ empty_list ,
               maps : ∅,
               operations : ∅,
               options : ∅,
               sets : ∅,
               unions : ∅  
[1;38;5;40m✔[0m No alarm
Analysis summary:
  Checks: [1m2 total[0m, [1;38;5;40m✔ 2 safe[0m
    Assertion failure: 1 total, [1;38;5;40m✔ 1 safe[0m
    failure: 1 total, [1;38;5;40m✔ 1 safe[0m

