[1;38;5;40mAnalysis terminated successfully[0m
Last flow =
            cur : 
               addresses : ∅,
               int-itv ∪ strings : 
                  num⦃initial_parameter⦄ ⇀ [1,1],
                  num⦃initial_storage:1.list_item (m_int)⦄ ⇀ 
                    [-∞,+∞],
                  num⦃initial_storage:1.list_size (m_int)⦄ ⇀ 
                    [-∞,+∞],
                  num⦃stackpos[0].snd.list_item (m_int)⦄ ⇀ [1,3],
                  num⦃stackpos[0].snd.list_size (m_int)⦄ ⇀ [3,3] ,
               lambda : ∅,
               lists : 
                  initial_storage ⇀ ⊤,
                  stackpos[0].fst ((list m_operation)) ⇀ empty_list,
                  stackpos[0].snd ((list m_int)) ⇀ list ,
               maps : ∅,
               operations : ∅,
               options : ∅,
               sets : ∅,
               unions : ∅  
[1;38;5;40m✔[0m No alarm
Analysis summary:
  Checks: [1m1 total[0m, [1;38;5;40m✔ 1 safe[0m
    failure: 1 total, [1;38;5;40m✔ 1 safe[0m

