[1;38;5;40mAnalysis terminated successfully[0m
Last flow =
            cur : 
               addresses : ∅,
               int-itv ∪ strings : 
                  num⦃initial_parameter⦄ ⇀ [1,1],
                  num⦃initial_storage:1.set_item (m_int)⦄ ⇀ [-∞,+∞],
                  num⦃initial_storage:1.set_size (m_int)⦄ ⇀ [-∞,+∞],
                  num⦃stackpos[0].snd.set_item (m_int)⦄ ⇀ [1,1],
                  num⦃stackpos[0].snd.set_size (m_int)⦄ ⇀ [1,1] ,
               lambda : ∅,
               lists :  stackpos[0].fst ((list m_operation)) ⇀ empty_list ,
               maps : ∅,
               operations : ∅,
               options : ∅,
               sets : 
                  initial_storage ⇀ ⊤,
                  stackpos[0].snd ((set m_int)) ⇀ set ,
               unions : ∅  
[1;38;5;40m✔[0m No alarm
Analysis summary:
  Checks: [1m1 total[0m, [1;38;5;40m✔ 1 safe[0m
    failure: 1 total, [1;38;5;40m✔ 1 safe[0m

