[1;38;5;40mAnalysis terminated successfully[0m
Last flow =
            cur : 
               addresses : ∅,
               int-itv ∪ strings : 
                  num⦃initial_parameter⦄ ⇀ [1,1],
                  num⦃initial_storage:1.map_key (m_int)⦄ ⇀ [-∞,+∞],
                  num⦃initial_storage:1.map_size (m_int)⦄ ⇀ [-∞,+∞],
                  num⦃initial_storage:1.map_value (m_int)⦄ ⇀ 
                    [-∞,+∞] ,
               lambda : ∅,
               lists :  stackpos[0].fst ((list m_operation)) ⇀ empty_list ,
               maps : 
                  initial_storage ⇀ ⊤,
                  stackpos[0].snd ((map m_int m_int)) ⇀ empty_map ,
               operations : ∅,
               options : ∅,
               sets : ∅,
               unions : ∅  
[1;38;5;40m✔[0m No alarm
Analysis summary:
  Checks: [1m1 total[0m, [1;38;5;40m✔ 1 safe[0m
    failure: 1 total, [1;38;5;40m✔ 1 safe[0m

